{
    "categories" : [
        {
            "name" : "Category 1",
            "type" : "fin_lit",
            "questions" : [
                {
                    "value" : "What is the answer to question 1?",
                    "answers" : [
                        {
                            "value" : "The answer is one",
                            "correct" : false
                        },
                        {
                            "value" : "The answer is two",
                            "correct" : false
                        },
                        {
                            "value" : "The answer is three",
                            "correct" : false
                        },
                        {
                            "value" : "The answer is four",
                            "correct" : true
                        }
                    ]
                },
                {
                    "value" : "What is the answer to question 2?",
                    "answers" : [
                        {
                            "value" : "The answer is one",
                            "correct" : false
                        },
                        {
                            "value" : "The answer is two",
                            "correct" : false
                        },
                        {
                            "value" : "The answer is three",
                            "correct" : false
                        },
                        {
                            "value" : "The answer is four",
                            "correct" : true
                        }
                    ]
                },
                {
                    "value" : "What is the answer to question 3?",
                    "answers" : [
                        {
                            "value" : "The answer is one",
                            "correct" : false
                        },
                        {
                            "value" : "The answer is two",
                            "correct" : false
                        },
                        {
                            "value" : "The answer is three",
                            "correct" : false
                        },
                        {
                            "value" : "The answer is four",
                            "correct" : true
                        }
                    ]
                }
            ]
        },
        {
            "name" : "Category 2",
            "type" : "bihl",
            "questions" : [
                {
                    "value" : "What is the answer to question 1?",
                    "answers" : [
                        {
                            "value" : "The answer is one",
                            "correct" : false
                        },
                        {
                            "value" : "The answer is two",
                            "correct" : false
                        },
                        {
                            "value" : "The answer is three",
                            "correct" : false
                        },
                        {
                            "value" : "The answer is four",
                            "correct" : true
                        }
                    ]
                },
                {
                    "value" : "What is the answer to question 2?",
                    "answers" : [
                        {
                            "value" : "The answer is one",
                            "correct" : false
                        },
                        {
                            "value" : "The answer is two",
                            "correct" : false
                        },
                        {
                            "value" : "The answer is three",
                            "correct" : false
                        },
                        {
                            "value" : "The answer is four",
                            "correct" : true
                        }
                    ]
                },
                {
                    "value" : "What is the answer to question 3?",
                    "answers" : [
                        {
                            "value" : "The answer is one",
                            "correct" : false
                        },
                        {
                            "value" : "The answer is two",
                            "correct" : false
                        },
                        {
                            "value" : "The answer is three",
                            "correct" : false
                        },
                        {
                            "value" : "The answer is four",
                            "correct" : true
                        }
                    ]
                }
            ]
        },
        {
            "name" : "Category 3",
            "type" : "bihl",
            "questions" : [
                {
                    "value" : "What is the answer to question 1?",
                    "answers" : [
                        {
                            "value" : "The answer is one",
                            "correct" : false
                        },
                        {
                            "value" : "The answer is two",
                            "correct" : false
                        },
                        {
                            "value" : "The answer is three",
                            "correct" : false
                        },
                        {
                            "value" : "The answer is four",
                            "correct" : true
                        }
                    ]
                },
                {
                    "value" : "What is the answer to question 2?",
                    "answers" : [
                        {
                            "value" : "The answer is one",
                            "correct" : false
                        },
                        {
                            "value" : "The answer is two",
                            "correct" : false
                        },
                        {
                            "value" : "The answer is three",
                            "correct" : false
                        },
                        {
                            "value" : "The answer is four",
                            "correct" : true
                        }
                    ]
                },
                {
                    "value" : "What is the answer to question 3?",
                    "answers" : [
                        {
                            "value" : "The answer is one",
                            "correct" : false
                        },
                        {
                            "value" : "The answer is two",
                            "correct" : false
                        },
                        {
                            "value" : "The answer is three",
                            "correct" : false
                        },
                        {
                            "value" : "The answer is four",
                            "correct" : true
                        }
                    ]
                }
            ]
        }
    ]
}